// Jest Snapshot v1, https://goo.gl/fbAQLP

exports[`Test button successfullly should render a button successfullly 1`] = `
<div>
  <button
    class="sc-bdfBwQ crZUfl"
  >
    Entrar
  </button>
</div>
`;
